-------------------------------------------------------------------------------
Test set: States.MenuStateTest
-------------------------------------------------------------------------------
Tests run: 6, Failures: 0, Errors: 1, Skipped: 0, Time elapsed: 1.099 s <<< FAILURE! - in States.MenuStateTest
States.MenuStateTest.keyPressed_EnterKey_CallsSelect  Time elapsed: 1.056 s  <<< ERROR!
org.mockito.exceptions.misusing.NotAMockException: 

Argument passed to verify() is of type MenuState and is not a mock!
Make sure you place the parenthesis correctly!
See the examples of correct verifications:
    verify(mock).someMethod();
    verify(mock, times(10)).someMethod();
    verify(mock, atLeastOnce()).someMethod();
	at States.MenuStateTest.keyPressed_EnterKey_CallsSelect(MenuStateTest.java:52)

